{
  "files": {
    "main.css": "/static/css/main.e6c13ad2.css",
    "main.js": "/static/js/main.5666be02.js",
    "static/js/787.49fa9526.chunk.js": "/static/js/787.49fa9526.chunk.js",
    "index.html": "/index.html",
    "main.e6c13ad2.css.map": "/static/css/main.e6c13ad2.css.map",
    "main.5666be02.js.map": "/static/js/main.5666be02.js.map",
    "787.49fa9526.chunk.js.map": "/static/js/787.49fa9526.chunk.js.map"
  },
  "entrypoints": [
    "static/css/main.e6c13ad2.css",
    "static/js/main.5666be02.js"
  ]
}